{
	"name": "roll-ext",
	"title": "Roll Extended",
	"description": "Adds extended roll functionality.",
	"version": "0.128",
	"author": "Furyspark",
	"scripts": ["./roll-ext.js"],
	"packs": [],
	"url": "https://gitlab.com/Furyspark/foundryvtt-roll-ext",
	"manifest": "https://gitlab.com/Furyspark/foundryvtt-roll-ext/raw/master/module.json",
	"download": "https://gitlab.com/Furyspark/foundryvtt-roll-ext/-/archive/master/foundryvtt-roll-ext-master.zip",
	"minimumCoreVersion": "0.4.4"
}
